{
    "name": "ShoppingItem",
    "fields": [
        {
            "fieldName": "label",
            "fieldType": "String",
            "fieldValidateRules": [
                "required",
                "minlength",
                "maxlength"
            ],
            "fieldValidateRulesMinlength": "2",
            "fieldValidateRulesMaxlength": "80"
        },
        {
            "fieldName": "lastUpdate",
            "fieldType": "LocalDate",
            "fieldValidateRules": [
                "required"
            ]
        },
        {
            "fieldName": "checked",
            "fieldType": "Boolean",
            "fieldValidateRules": [
                "required"
            ]
        },
        {
            "fieldName": "quantity",
            "fieldType": "Float",
            "fieldValidateRules": [
                "min"
            ],
            "fieldValidateRulesMin": "0"
        },
        {
            "fieldName": "unit",
            "fieldType": "Unit",
            "fieldValues": "QUANTITY,G,KG,L,ML"
        }
    ],
    "relationships": [
        {
            "relationshipType": "many-to-one",
            "otherEntityName": "shoppingCatalogSheld",
            "otherEntityRelationshipName": "shoppingItem",
            "relationshipValidateRules": "required",
            "relationshipName": "shoppingCatalogSheld",
            "otherEntityField": "label"
        },
        {
            "relationshipType": "many-to-one",
            "otherEntityName": "shoppingCart",
            "otherEntityRelationshipName": "shoppingItem",
            "relationshipValidateRules": "required",
            "relationshipName": "shoppingCart",
            "otherEntityField": "label"
        }
    ],
    "changelogDate": "20200618084600",
    "entityTableName": "shopping_item",
    "dto": "mapstruct",
    "pagination": "infinite-scroll",
    "service": "serviceClass",
    "jpaMetamodelFiltering": true,
    "fluentMethods": true,
    "readOnly": false,
    "embedded": false,
    "clientRootFolder": "",
    "applications": "*"
}